…
``` r
#Create smoker variable 
birth_cln%>%
  distinct(smoken)
```

    ## # A tibble: 33 × 1
    ##    smoken
    ##     <dbl>
    ##  1  0    
    ##  2  1    
    ##  3 10    
    ##  4  4    
    ##  5  0.125
    ##  6 15    
    ##  7  8    
    ##  8  5    
    ##  9 20    
    ## 10  3    
    ## # … with 23 more rows
…
``` r
boot_sample = function(df) {
  sample_frac(df, replace = TRUE)
}

boot_straps = 
  data_frame(
    strap_number = 1:5000,
    strap_sample = rerun(5000, boot_sample(weather_df))
  )

boot_straps
```

    ## # A tibble: 5,000 × 2
    ##    strap_number strap_sample      
    ##           <int> <list>            
    ##  1            1 <tibble [365 × 6]>
    ##  2            2 <tibble [365 × 6]>
    ##  3            3 <tibble [365 × 6]>
    ##  4            4 <tibble [365 × 6]>
    ##  5            5 <tibble [365 × 6]>
    ##  6            6 <tibble [365 × 6]>
    ##  7            7 <tibble [365 × 6]>
    ##  8            8 <tibble [365 × 6]>
    ##  9            9 <tibble [365 × 6]>
    ## 10           10 <tibble [365 × 6]>
    ## # … with 4,990 more rows
…
